%YAML 1.1
%TAG !u! tag:unity3d.com,2011:
--- !u!114 &11400000
MonoBehaviour:
  m_ObjectHideFlags: 0
  m_CorrespondingSourceObject: {fileID: 0}
  m_PrefabInstance: {fileID: 0}
  m_PrefabAsset: {fileID: 0}
  m_GameObject: {fileID: 0}
  m_Enabled: 1
  m_EditorHideFlags: 0
  m_Script: {fileID: 11500000, guid: c3900475ea3fd27439e6eb09b63efaec, type: 3}
  m_Name: SFXData
  m_EditorClassIdentifier: 
  audioDict:
    reorderableList:
      canAdd: 1
      canRemove: 1
      draggable: 1
      expandable: 1
      multipleSelection: 1
      isExpanded: 1
      label:
        m_Text: Keys
        m_Image: {fileID: 0}
        m_Tooltip: 
      headerHeight: 18
      footerHeight: 13
      slideEasing: 0.15
      verticalSpacing: 2
      showDefaultBackground: 1
      elementDisplayType: 0
      elementNameProperty: 
      elementNameOverride: 
      elementIcon: {fileID: 0}
    reqReferences: {fileID: 0}
    isExpanded: 1
    _keyValues:
    - Cool
    - Bad
    - Good
    - Miss
    - RackethitCenter
    - RackethitCenterLeft
    - RackethitCenterRight
    - RackethitLeft
    - RackethitRight
    - TablehitCenter
    - TablehitLeft
    - TablehitRight
    _keys:
    - Cool
    - Bad
    - Good
    - Miss
    - RackethitCenter
    - RackethitCenterLeft
    - RackethitCenterRight
    - RackethitLeft
    - RackethitRight
    - TablehitCenter
    - TablehitLeft
    - TablehitRight
    _values:
    - {fileID: 8300000, guid: 3a995c9fdc11d8e46ab1554b8886b109, type: 3}
    - {fileID: 8300000, guid: 3a995c9fdc11d8e46ab1554b8886b109, type: 3}
    - {fileID: 8300000, guid: 3a995c9fdc11d8e46ab1554b8886b109, type: 3}
    - {fileID: 8300000, guid: 652421fa10d46b540a0430d2640f13e1, type: 3}
    - {fileID: 8300000, guid: 5359baa1c72e1fa4dadb196df622a187, type: 3}
    - {fileID: 8300000, guid: 877c601546de2d94d88e0fa9f4ad39ac, type: 3}
    - {fileID: 8300000, guid: 877c601546de2d94d88e0fa9f4ad39ac, type: 3}
    - {fileID: 8300000, guid: 5359baa1c72e1fa4dadb196df622a187, type: 3}
    - {fileID: 8300000, guid: 5359baa1c72e1fa4dadb196df622a187, type: 3}
    - {fileID: 8300000, guid: 4f8dddecd16880d4e99987d07260c2f9, type: 3}
    - {fileID: 8300000, guid: 4f8dddecd16880d4e99987d07260c2f9, type: 3}
    - {fileID: 8300000, guid: 4f8dddecd16880d4e99987d07260c2f9, type: 3}
