%YAML 1.1
%TAG !u! tag:unity3d.com,2011:
--- !u!114 &11400000
MonoBehaviour:
  m_ObjectHideFlags: 0
  m_CorrespondingSourceObject: {fileID: 0}
  m_PrefabInstance: {fileID: 0}
  m_PrefabAsset: {fileID: 0}
  m_GameObject: {fileID: 0}
  m_Enabled: 1
  m_EditorHideFlags: 0
  m_Script: {fileID: 11500000, guid: 8111fab17a85acf47a019ef968c3ade6, type: 3}
  m_Name: Wave11
  m_EditorClassIdentifier: 
  waveID: 11
  waitTime: 0.8
  duration: 0.8
  delay: 0.06
  animSpeed: 2
  dirReq: 0000000001000000020000000300000004000000
  ballTypePercentage:
    reorderableList:
      canAdd: 1
      canRemove: 1
      draggable: 1
      expandable: 1
      multipleSelection: 1
      isExpanded: 1
      label:
        m_Text: Keys
        m_Image: {fileID: 0}
        m_Tooltip: 
      headerHeight: 18
      footerHeight: 13
      slideEasing: 0.15
      verticalSpacing: 2
      showDefaultBackground: 1
      elementDisplayType: 0
      elementNameProperty: 
      elementNameOverride: 
      elementIcon: {fileID: 0}
    reqReferences: {fileID: 0}
    isExpanded: 1
    _keyValues: 000000000100000002000000
    _keys: 000000000100000002000000
    _values:
    - 60
    - 10
    - 30
  hitPtPatternRange: {x: 1, y: 3}
  returnHitPtPatternRange: {x: 1, y: 1}
  ReqShotToRandPattern: 1
  hitToNextWave: 2
